…
5. Make up your own! Between the dplyr coverage in class and the list above, I think you get the idea.




```r
gapminder %>% 
  filter(year %in% c("2000", "2002")) %>% 
  select(country, year, gdpPercap)
```

```
## # A tibble: 142 x 3
##        country  year  gdpPercap
##         <fctr> <int>      <dbl>
##  1 Afghanistan  2002   726.7341
##  2     Albania  2002  4604.2117
##  3     Algeria  2002  5288.0404
##  4      Angola  2002  2773.2873
##  5   Argentina  2002  8797.6407
##  6   Australia  2002 30687.7547
##  7     Austria  2002 32417.6077
##  8     Bahrain  2002 23403.5593
##  9  Bangladesh  2002  1136.3904
## 10     Belgium  2002 30485.8838
## # ... with 132 more rows
```
